\BOOKMARK [1][-]{section.1}{Introduction}{}% 1
\BOOKMARK [1][-]{section.2}{RapidMiner Beans \205 Overview}{}% 2
\BOOKMARK [2][-]{subsection.2.1}{JavaBeans and Parameter Annotations}{section.2}% 3
\BOOKMARK [2][-]{subsection.2.2}{Operator Documentation}{section.2}% 4
\BOOKMARK [2][-]{subsection.2.3}{Support for User-Libraries}{section.2}% 5
\BOOKMARK [1][-]{section.3}{Example \205 A simple Operator}{}% 6
\BOOKMARK [2][-]{subsection.3.1}{Operator Annotations}{section.3}% 7
\BOOKMARK [2][-]{subsection.3.2}{Adding Parameters with OperatorBeans}{section.3}% 8
\BOOKMARK [1][-]{section.4}{Writing Documentation}{}% 9
\BOOKMARK [2][-]{subsection.4.1}{The Markdown Format }{section.4}% 10
\BOOKMARK [2][-]{subsection.4.2}{Documentation within RapidMiner}{section.4}% 11
\BOOKMARK [1][-]{section.5}{Summary and Future Work}{}% 12
